%YAML 1.1
%TAG !u! tag:unity3d.com,2011:
--- !u!1 &3345404466508520448
GameObject:
  m_ObjectHideFlags: 0
  m_CorrespondingSourceObject: {fileID: 0}
  m_PrefabInstance: {fileID: 0}
  m_PrefabAsset: {fileID: 0}
  serializedVersion: 6
  m_Component:
  - component: {fileID: 3345404466508520450}
  - component: {fileID: 3345404466508520451}
  m_Layer: 0
  m_Name: SceneLoader
  m_TagString: Untagged
  m_Icon: {fileID: 0}
  m_NavMeshLayer: 0
  m_StaticEditorFlags: 0
  m_IsActive: 1
--- !u!4 &3345404466508520450
Transform:
  m_ObjectHideFlags: 0
  m_CorrespondingSourceObject: {fileID: 0}
  m_PrefabInstance: {fileID: 0}
  m_PrefabAsset: {fileID: 0}
  m_GameObject: {fileID: 3345404466508520448}
  m_LocalRotation: {x: 0, y: 0, z: 0, w: 1}
  m_LocalPosition: {x: 0, y: 0, z: 0}
  m_LocalScale: {x: 1, y: 1, z: 1}
  m_ConstrainProportionsScale: 0
  m_Children: []
  m_Father: {fileID: 0}
  m_RootOrder: 0
  m_LocalEulerAnglesHint: {x: 0, y: 0, z: 0}
--- !u!114 &3345404466508520451
MonoBehaviour:
  m_ObjectHideFlags: 0
  m_CorrespondingSourceObject: {fileID: 0}
  m_PrefabInstance: {fileID: 0}
  m_PrefabAsset: {fileID: 0}
  m_GameObject: {fileID: 3345404466508520448}
  m_Enabled: 1
  m_EditorHideFlags: 0
  m_Script: {fileID: 11500000, guid: ee3b0566e971fae48b27f37480d7c4d4, type: 3}
  m_Name: 
  m_EditorClassIdentifier: 
  levelsToLoad:
  - isLoaded: 0
    name: Managers
    isPersistant: 0
    loadOnStart: 0
    scenes: []
  - isLoaded: 0
    name: LoadOnStart
    isPersistant: 0
    loadOnStart: 1
    scenes:
    - sceneName: MainMenu
      sceneObject: {fileID: 102900000, guid: 858d68c7c879a82409445c24d0242367, type: 3}
  - isLoaded: 0
    name: Player
    isPersistant: 0
    loadOnStart: 0
    scenes: []
  loadingBar: {fileID: 0}
