%YAML 1.1
%TAG !u! tag:unity3d.com,2011:
--- !u!114 &11400000
MonoBehaviour:
  m_ObjectHideFlags: 0
  m_CorrespondingSourceObject: {fileID: 0}
  m_PrefabInstance: {fileID: 0}
  m_PrefabAsset: {fileID: 0}
  m_GameObject: {fileID: 0}
  m_Enabled: 1
  m_EditorHideFlags: 0
  m_Script: {fileID: 11500000, guid: e120abb2d13a4a2caf4a0b4305210245, type: 3}
  m_Name: Upgrade
  m_EditorClassIdentifier: 
  startAttackUpgradeCost: 30
  startHealthUpgradeCost: 30
  attackDifferenceProperty: 30
  healthDifferenceProperty: 25
