%YAML 1.1
%TAG !u! tag:unity3d.com,2011:
--- !u!1 &1088795702756802
GameObject:
  m_ObjectHideFlags: 0
  m_CorrespondingSourceObject: {fileID: 0}
  m_PrefabInstance: {fileID: 0}
  m_PrefabAsset: {fileID: 0}
  serializedVersion: 6
  m_Component:
  - component: {fileID: 4267951790424872}
  - component: {fileID: 33369611036023074}
  - component: {fileID: 23387173997794884}
  - component: {fileID: -639768419298778707}
  m_Layer: 0
  m_Name: civilian_house_08
  m_TagString: Untagged
  m_Icon: {fileID: 0}
  m_NavMeshLayer: 0
  m_StaticEditorFlags: 0
  m_IsActive: 1
--- !u!4 &4267951790424872
Transform:
  m_ObjectHideFlags: 0
  m_CorrespondingSourceObject: {fileID: 0}
  m_PrefabInstance: {fileID: 0}
  m_PrefabAsset: {fileID: 0}
  m_GameObject: {fileID: 1088795702756802}
  m_LocalRotation: {x: -0.50000006, y: 0.49999997, z: 0.49999997, w: 0.50000006}
  m_LocalPosition: {x: -0, y: 0, z: 0}
  m_LocalScale: {x: 1, y: 1, z: 1}
  m_ConstrainProportionsScale: 0
  m_Children: []
  m_Father: {fileID: 0}
  m_RootOrder: 0
  m_LocalEulerAnglesHint: {x: 0, y: 0, z: 0}
--- !u!33 &33369611036023074
MeshFilter:
  m_ObjectHideFlags: 0
  m_CorrespondingSourceObject: {fileID: 0}
  m_PrefabInstance: {fileID: 0}
  m_PrefabAsset: {fileID: 0}
  m_GameObject: {fileID: 1088795702756802}
  m_Mesh: {fileID: 4300000, guid: a410cb53efea0fb43a0bb92881d45dbb, type: 3}
--- !u!23 &23387173997794884
MeshRenderer:
  m_ObjectHideFlags: 0
  m_CorrespondingSourceObject: {fileID: 0}
  m_PrefabInstance: {fileID: 0}
  m_PrefabAsset: {fileID: 0}
  m_GameObject: {fileID: 1088795702756802}
  m_Enabled: 1
  m_CastShadows: 1
  m_ReceiveShadows: 1
  m_DynamicOccludee: 1
  m_StaticShadowCaster: 0
  m_MotionVectors: 1
  m_LightProbeUsage: 1
  m_ReflectionProbeUsage: 1
  m_RayTracingMode: 2
  m_RayTraceProcedural: 0
  m_RenderingLayerMask: 1
  m_RendererPriority: 0
  m_Materials:
  - {fileID: 2100000, guid: 870bcbe66fbf1e0479f611163b71d61e, type: 2}
  - {fileID: 2100000, guid: a0c6c4757d70d784b9a1cb379ed3b317, type: 2}
  - {fileID: 2100000, guid: 21f5d46cfbe5a1944a447dbbd51d3386, type: 2}
  - {fileID: 2100000, guid: e82ace00f00645d49a08d75fd44ad39a, type: 2}
  - {fileID: 2100000, guid: 73bb492173387a344a6284831b74ea6e, type: 2}
  - {fileID: 2100000, guid: 1a01c6b18a1403543975a0427b9682e8, type: 2}
  - {fileID: 2100000, guid: d99f40f661faa30449eba51a6b6621b8, type: 2}
  - {fileID: 2100000, guid: 2ccda7ea0deffd74fa5caf33fcde2318, type: 2}
  - {fileID: 2100000, guid: 79cb73a5095332d418ed29b096788715, type: 2}
  - {fileID: 0}
  - {fileID: 2100000, guid: 9b2f7a9877042784da6f113d45cd70e6, type: 2}
  - {fileID: 2100000, guid: 9923ec4feaebca94382cb2c29c582cfe, type: 2}
  m_StaticBatchInfo:
    firstSubMesh: 0
    subMeshCount: 0
  m_StaticBatchRoot: {fileID: 0}
  m_ProbeAnchor: {fileID: 0}
  m_LightProbeVolumeOverride: {fileID: 0}
  m_ScaleInLightmap: 1
  m_ReceiveGI: 1
  m_PreserveUVs: 0
  m_IgnoreNormalsForChartDetection: 0
  m_ImportantGI: 0
  m_StitchLightmapSeams: 1
  m_SelectedEditorRenderState: 3
  m_MinimumChartSize: 4
  m_AutoUVMaxDistance: 0.5
  m_AutoUVMaxAngle: 89
  m_LightmapParameters: {fileID: 0}
  m_SortingLayerID: 0
  m_SortingLayer: 0
  m_SortingOrder: 0
  m_AdditionalVertexStreams: {fileID: 0}
--- !u!64 &-639768419298778707
MeshCollider:
  m_ObjectHideFlags: 0
  m_CorrespondingSourceObject: {fileID: 0}
  m_PrefabInstance: {fileID: 0}
  m_PrefabAsset: {fileID: 0}
  m_GameObject: {fileID: 1088795702756802}
  m_Material: {fileID: 0}
  m_IsTrigger: 0
  m_Enabled: 1
  serializedVersion: 4
  m_Convex: 0
  m_CookingOptions: 30
  m_Mesh: {fileID: 4300000, guid: a410cb53efea0fb43a0bb92881d45dbb, type: 3}
