-target:library
-out:"Library/Bee/artifacts/1900b0aE.dag/Zenject-UnitTests-Editor.dll"
-refout:"Library/Bee/artifacts/1900b0aE.dag/Zenject-UnitTests-Editor.ref.dll"
-define:UNITY_2021_3_6
-define:UNITY_2021_3
-define:UNITY_2021
-define:UNITY_5_3_OR_NEWER
-define:UNITY_5_4_OR_NEWER
-define:UNITY_5_5_OR_NEWER
-define:UNITY_5_6_OR_NEWER
-define:UNITY_2017_1_OR_NEWER
-define:UNITY_2017_2_OR_NEWER
-define:UNITY_2017_3_OR_NEWER
-define:UNITY_2017_4_OR_NEWER
-define:UNITY_2018_1_OR_NEWER
-define:UNITY_2018_2_OR_NEWER
-define:UNITY_2018_3_OR_NEWER
-define:UNITY_2018_4_OR_NEWER
-define:UNITY_2019_1_OR_NEWER
-define:UNITY_2019_2_OR_NEWER
-define:UNITY_2019_3_OR_NEWER
-define:UNITY_2019_4_OR_NEWER
-define:UNITY_2020_1_OR_NEWER
-define:UNITY_2020_2_OR_NEWER
-define:UNITY_2020_3_OR_NEWER
-define:UNITY_2021_1_OR_NEWER
-define:UNITY_2021_2_OR_NEWER
-define:UNITY_2021_3_OR_NEWER
-define:PLATFORM_ARCH_64
-define:UNITY_64
-define:UNITY_INCLUDE_TESTS
-define:USE_SEARCH_ENGINE_API
-define:USE_SEARCH_TABLE
-define:USE_SEARCH_MODULE
-define:USE_PROPERTY_DATABASE
-define:USE_SEARCH_EXTENSION_API
-define:SCENE_TEMPLATE_MODULE
-define:ENABLE_AR
-define:ENABLE_AUDIO
-define:ENABLE_CACHING
-define:ENABLE_CLOTH
-define:ENABLE_EVENT_QUEUE
-define:ENABLE_MICROPHONE
-define:ENABLE_MULTIPLE_DISPLAYS
-define:ENABLE_PHYSICS
-define:ENABLE_TEXTURE_STREAMING
-define:ENABLE_VIRTUALTEXTURING
-define:ENABLE_UNET
-define:ENABLE_LZMA
-define:ENABLE_UNITYEVENTS
-define:ENABLE_VR
-define:ENABLE_WEBCAM
-define:ENABLE_UNITYWEBREQUEST
-define:ENABLE_WWW
-define:ENABLE_CLOUD_SERVICES
-define:ENABLE_CLOUD_SERVICES_COLLAB
-define:ENABLE_CLOUD_SERVICES_COLLAB_SOFTLOCKS
-define:ENABLE_CLOUD_SERVICES_ADS
-define:ENABLE_CLOUD_SERVICES_USE_WEBREQUEST
-define:ENABLE_CLOUD_SERVICES_CRASH_REPORTING
-define:ENABLE_CLOUD_SERVICES_PURCHASING
-define:ENABLE_CLOUD_SERVICES_ANALYTICS
-define:ENABLE_CLOUD_SERVICES_UNET
-define:ENABLE_CLOUD_SERVICES_BUILD
-define:ENABLE_CLOUD_LICENSE
-define:ENABLE_EDITOR_HUB_LICENSE
-define:ENABLE_WEBSOCKET_CLIENT
-define:ENABLE_DIRECTOR_AUDIO
-define:ENABLE_DIRECTOR_TEXTURE
-define:ENABLE_MANAGED_JOBS
-define:ENABLE_MANAGED_TRANSFORM_JOBS
-define:ENABLE_MANAGED_ANIMATION_JOBS
-define:ENABLE_MANAGED_AUDIO_JOBS
-define:ENABLE_MANAGED_UNITYTLS
-define:INCLUDE_DYNAMIC_GI
-define:ENABLE_SCRIPTING_GC_WBARRIERS
-define:PLATFORM_SUPPORTS_MONO
-define:RENDER_SOFTWARE_CURSOR
-define:ENABLE_VIDEO
-define:ENABLE_ACCELERATOR_CLIENT_DEBUGGING
-define:PLATFORM_STANDALONE
-define:TEXTCORE_1_0_OR_NEWER
-define:PLATFORM_STANDALONE_WIN
-define:UNITY_STANDALONE_WIN
-define:UNITY_STANDALONE
-define:ENABLE_RUNTIME_GI
-define:ENABLE_MOVIES
-define:ENABLE_NETWORK
-define:ENABLE_NVIDIA
-define:ENABLE_CRUNCH_TEXTURE_COMPRESSION
-define:ENABLE_OUT_OF_PROCESS_CRASH_HANDLER
-define:ENABLE_CLUSTER_SYNC
-define:ENABLE_CLUSTERINPUT
-define:PLATFORM_UPDATES_TIME_OUTSIDE_OF_PLAYER_LOOP
-define:GFXDEVICE_WAITFOREVENT_MESSAGEPUMP
-define:ENABLE_WEBSOCKET_HOST
-define:ENABLE_MONO
-define:NET_4_6
-define:NET_UNITY_4_8
-define:ENABLE_PROFILER
-define:DEBUG
-define:TRACE
-define:UNITY_ASSERTIONS
-define:UNITY_EDITOR
-define:UNITY_EDITOR_64
-define:UNITY_EDITOR_WIN
-define:ENABLE_UNITY_COLLECTIONS_CHECKS
-define:ENABLE_BURST_AOT
-define:UNITY_TEAM_LICENSE
-define:ENABLE_CUSTOM_RENDER_TEXTURE
-define:ENABLE_DIRECTOR
-define:ENABLE_LOCALIZATION
-define:ENABLE_SPRITES
-define:ENABLE_TERRAIN
-define:ENABLE_TILEMAP
-define:ENABLE_TIMELINE
-define:ENABLE_INPUT_SYSTEM
-define:CSHARP_7_OR_LATER
-define:CSHARP_7_3_OR_NEWER
-r:"Assets/Plugins/Zenject/Source/Usage/Zenject-usage.dll"
-r:"C:/Program Files/Unity/Hub/Editor/2021.3.6f1/Editor/Data/Managed/UnityEditor.Graphs.dll"
-r:"C:/Program Files/Unity/Hub/Editor/2021.3.6f1/Editor/Data/Managed/UnityEngine/UnityEditor.CoreModule.dll"
-r:"C:/Program Files/Unity/Hub/Editor/2021.3.6f1/Editor/Data/Managed/UnityEngine/UnityEditor.DeviceSimulatorModule.dll"
-r:"C:/Program Files/Unity/Hub/Editor/2021.3.6f1/Editor/Data/Managed/UnityEngine/UnityEditor.DiagnosticsModule.dll"
-r:"C:/Program Files/Unity/Hub/Editor/2021.3.6f1/Editor/Data/Managed/UnityEngine/UnityEditor.dll"
-r:"C:/Program Files/Unity/Hub/Editor/2021.3.6f1/Editor/Data/Managed/UnityEngine/UnityEditor.GraphViewModule.dll"
-r:"C:/Program Files/Unity/Hub/Editor/2021.3.6f1/Editor/Data/Managed/UnityEngine/UnityEditor.PackageManagerUIModule.dll"
-r:"C:/Program Files/Unity/Hub/Editor/2021.3.6f1/Editor/Data/Managed/UnityEngine/UnityEditor.QuickSearchModule.dll"
-r:"C:/Program Files/Unity/Hub/Editor/2021.3.6f1/Editor/Data/Managed/UnityEngine/UnityEditor.SceneTemplateModule.dll"
-r:"C:/Program Files/Unity/Hub/Editor/2021.3.6f1/Editor/Data/Managed/UnityEngine/UnityEditor.TextCoreFontEngineModule.dll"
-r:"C:/Program Files/Unity/Hub/Editor/2021.3.6f1/Editor/Data/Managed/UnityEngine/UnityEditor.TextCoreTextEngineModule.dll"
-r:"C:/Program Files/Unity/Hub/Editor/2021.3.6f1/Editor/Data/Managed/UnityEngine/UnityEditor.UIBuilderModule.dll"
-r:"C:/Program Files/Unity/Hub/Editor/2021.3.6f1/Editor/Data/Managed/UnityEngine/UnityEditor.UIElementsModule.dll"
-r:"C:/Program Files/Unity/Hub/Editor/2021.3.6f1/Editor/Data/Managed/UnityEngine/UnityEditor.UIElementsSamplesModule.dll"
-r:"C:/Program Files/Unity/Hub/Editor/2021.3.6f1/Editor/Data/Managed/UnityEngine/UnityEditor.UIServiceModule.dll"
-r:"C:/Program Files/Unity/Hub/Editor/2021.3.6f1/Editor/Data/Managed/UnityEngine/UnityEditor.UnityConnectModule.dll"
-r:"C:/Program Files/Unity/Hub/Editor/2021.3.6f1/Editor/Data/Managed/UnityEngine/UnityEngine.AccessibilityModule.dll"
-r:"C:/Program Files/Unity/Hub/Editor/2021.3.6f1/Editor/Data/Managed/UnityEngine/UnityEngine.AIModule.dll"
-r:"C:/Program Files/Unity/Hub/Editor/2021.3.6f1/Editor/Data/Managed/UnityEngine/UnityEngine.AndroidJNIModule.dll"
-r:"C:/Program Files/Unity/Hub/Editor/2021.3.6f1/Editor/Data/Managed/UnityEngine/UnityEngine.AnimationModule.dll"
-r:"C:/Program Files/Unity/Hub/Editor/2021.3.6f1/Editor/Data/Managed/UnityEngine/UnityEngine.ARModule.dll"
-r:"C:/Program Files/Unity/Hub/Editor/2021.3.6f1/Editor/Data/Managed/UnityEngine/UnityEngine.AssetBundleModule.dll"
-r:"C:/Program Files/Unity/Hub/Editor/2021.3.6f1/Editor/Data/Managed/UnityEngine/UnityEngine.AudioModule.dll"
-r:"C:/Program Files/Unity/Hub/Editor/2021.3.6f1/Editor/Data/Managed/UnityEngine/UnityEngine.ClothModule.dll"
-r:"C:/Program Files/Unity/Hub/Editor/2021.3.6f1/Editor/Data/Managed/UnityEngine/UnityEngine.ClusterInputModule.dll"
-r:"C:/Program Files/Unity/Hub/Editor/2021.3.6f1/Editor/Data/Managed/UnityEngine/UnityEngine.ClusterRendererModule.dll"
-r:"C:/Program Files/Unity/Hub/Editor/2021.3.6f1/Editor/Data/Managed/UnityEngine/UnityEngine.CoreModule.dll"
-r:"C:/Program Files/Unity/Hub/Editor/2021.3.6f1/Editor/Data/Managed/UnityEngine/UnityEngine.CrashReportingModule.dll"
-r:"C:/Program Files/Unity/Hub/Editor/2021.3.6f1/Editor/Data/Managed/UnityEngine/UnityEngine.DirectorModule.dll"
-r:"C:/Program Files/Unity/Hub/Editor/2021.3.6f1/Editor/Data/Managed/UnityEngine/UnityEngine.dll"
-r:"C:/Program Files/Unity/Hub/Editor/2021.3.6f1/Editor/Data/Managed/UnityEngine/UnityEngine.DSPGraphModule.dll"
-r:"C:/Program Files/Unity/Hub/Editor/2021.3.6f1/Editor/Data/Managed/UnityEngine/UnityEngine.GameCenterModule.dll"
-r:"C:/Program Files/Unity/Hub/Editor/2021.3.6f1/Editor/Data/Managed/UnityEngine/UnityEngine.GIModule.dll"
-r:"C:/Program Files/Unity/Hub/Editor/2021.3.6f1/Editor/Data/Managed/UnityEngine/UnityEngine.GridModule.dll"
-r:"C:/Program Files/Unity/Hub/Editor/2021.3.6f1/Editor/Data/Managed/UnityEngine/UnityEngine.HotReloadModule.dll"
-r:"C:/Program Files/Unity/Hub/Editor/2021.3.6f1/Editor/Data/Managed/UnityEngine/UnityEngine.ImageConversionModule.dll"
-r:"C:/Program Files/Unity/Hub/Editor/2021.3.6f1/Editor/Data/Managed/UnityEngine/UnityEngine.IMGUIModule.dll"
-r:"C:/Program Files/Unity/Hub/Editor/2021.3.6f1/Editor/Data/Managed/UnityEngine/UnityEngine.InputLegacyModule.dll"
-r:"C:/Program Files/Unity/Hub/Editor/2021.3.6f1/Editor/Data/Managed/UnityEngine/UnityEngine.InputModule.dll"
-r:"C:/Program Files/Unity/Hub/Editor/2021.3.6f1/Editor/Data/Managed/UnityEngine/UnityEngine.JSONSerializeModule.dll"
-r:"C:/Program Files/Unity/Hub/Editor/2021.3.6f1/Editor/Data/Managed/UnityEngine/UnityEngine.LocalizationModule.dll"
-r:"C:/Program Files/Unity/Hub/Editor/2021.3.6f1/Editor/Data/Managed/UnityEngine/UnityEngine.NVIDIAModule.dll"
-r:"C:/Program Files/Unity/Hub/Editor/2021.3.6f1/Editor/Data/Managed/UnityEngine/UnityEngine.ParticleSystemModule.dll"
-r:"C:/Program Files/Unity/Hub/Editor/2021.3.6f1/Editor/Data/Managed/UnityEngine/UnityEngine.PerformanceReportingModule.dll"
-r:"C:/Program Files/Unity/Hub/Editor/2021.3.6f1/Editor/Data/Managed/UnityEngine/UnityEngine.Physics2DModule.dll"
-r:"C:/Program Files/Unity/Hub/Editor/2021.3.6f1/Editor/Data/Managed/UnityEngine/UnityEngine.PhysicsModule.dll"
-r:"C:/Program Files/Unity/Hub/Editor/2021.3.6f1/Editor/Data/Managed/UnityEngine/UnityEngine.ProfilerModule.dll"
-r:"C:/Program Files/Unity/Hub/Editor/2021.3.6f1/Editor/Data/Managed/UnityEngine/UnityEngine.RuntimeInitializeOnLoadManagerInitializerModule.dll"
-r:"C:/Program Files/Unity/Hub/Editor/2021.3.6f1/Editor/Data/Managed/UnityEngine/UnityEngine.ScreenCaptureModule.dll"
-r:"C:/Program Files/Unity/Hub/Editor/2021.3.6f1/Editor/Data/Managed/UnityEngine/UnityEngine.SharedInternalsModule.dll"
-r:"C:/Program Files/Unity/Hub/Editor/2021.3.6f1/Editor/Data/Managed/UnityEngine/UnityEngine.SpriteMaskModule.dll"
-r:"C:/Program Files/Unity/Hub/Editor/2021.3.6f1/Editor/Data/Managed/UnityEngine/UnityEngine.SpriteShapeModule.dll"
-r:"C:/Program Files/Unity/Hub/Editor/2021.3.6f1/Editor/Data/Managed/UnityEngine/UnityEngine.StreamingModule.dll"
-r:"C:/Program Files/Unity/Hub/Editor/2021.3.6f1/Editor/Data/Managed/UnityEngine/UnityEngine.SubstanceModule.dll"
-r:"C:/Program Files/Unity/Hub/Editor/2021.3.6f1/Editor/Data/Managed/UnityEngine/UnityEngine.SubsystemsModule.dll"
-r:"C:/Program Files/Unity/Hub/Editor/2021.3.6f1/Editor/Data/Managed/UnityEngine/UnityEngine.TerrainModule.dll"
-r:"C:/Program Files/Unity/Hub/Editor/2021.3.6f1/Editor/Data/Managed/UnityEngine/UnityEngine.TerrainPhysicsModule.dll"
-r:"C:/Program Files/Unity/Hub/Editor/2021.3.6f1/Editor/Data/Managed/UnityEngine/UnityEngine.TextCoreFontEngineModule.dll"
-r:"C:/Program Files/Unity/Hub/Editor/2021.3.6f1/Editor/Data/Managed/UnityEngine/UnityEngine.TextCoreTextEngineModule.dll"
-r:"C:/Program Files/Unity/Hub/Editor/2021.3.6f1/Editor/Data/Managed/UnityEngine/UnityEngine.TextRenderingModule.dll"
-r:"C:/Program Files/Unity/Hub/Editor/2021.3.6f1/Editor/Data/Managed/UnityEngine/UnityEngine.TilemapModule.dll"
-r:"C:/Program Files/Unity/Hub/Editor/2021.3.6f1/Editor/Data/Managed/UnityEngine/UnityEngine.TLSModule.dll"
-r:"C:/Program Files/Unity/Hub/Editor/2021.3.6f1/Editor/Data/Managed/UnityEngine/UnityEngine.UIElementsModule.dll"
-r:"C:/Program Files/Unity/Hub/Editor/2021.3.6f1/Editor/Data/Managed/UnityEngine/UnityEngine.UIElementsNativeModule.dll"
-r:"C:/Program Files/Unity/Hub/Editor/2021.3.6f1/Editor/Data/Managed/UnityEngine/UnityEngine.UIModule.dll"
-r:"C:/Program Files/Unity/Hub/Editor/2021.3.6f1/Editor/Data/Managed/UnityEngine/UnityEngine.UmbraModule.dll"
-r:"C:/Program Files/Unity/Hub/Editor/2021.3.6f1/Editor/Data/Managed/UnityEngine/UnityEngine.UNETModule.dll"
-r:"C:/Program Files/Unity/Hub/Editor/2021.3.6f1/Editor/Data/Managed/UnityEngine/UnityEngine.UnityAnalyticsModule.dll"
-r:"C:/Program Files/Unity/Hub/Editor/2021.3.6f1/Editor/Data/Managed/UnityEngine/UnityEngine.UnityConnectModule.dll"
-r:"C:/Program Files/Unity/Hub/Editor/2021.3.6f1/Editor/Data/Managed/UnityEngine/UnityEngine.UnityCurlModule.dll"
-r:"C:/Program Files/Unity/Hub/Editor/2021.3.6f1/Editor/Data/Managed/UnityEngine/UnityEngine.UnityTestProtocolModule.dll"
-r:"C:/Program Files/Unity/Hub/Editor/2021.3.6f1/Editor/Data/Managed/UnityEngine/UnityEngine.UnityWebRequestAssetBundleModule.dll"
-r:"C:/Program Files/Unity/Hub/Editor/2021.3.6f1/Editor/Data/Managed/UnityEngine/UnityEngine.UnityWebRequestAudioModule.dll"
-r:"C:/Program Files/Unity/Hub/Editor/2021.3.6f1/Editor/Data/Managed/UnityEngine/UnityEngine.UnityWebRequestModule.dll"
-r:"C:/Program Files/Unity/Hub/Editor/2021.3.6f1/Editor/Data/Managed/UnityEngine/UnityEngine.UnityWebRequestTextureModule.dll"
-r:"C:/Program Files/Unity/Hub/Editor/2021.3.6f1/Editor/Data/Managed/UnityEngine/UnityEngine.UnityWebRequestWWWModule.dll"
-r:"C:/Program Files/Unity/Hub/Editor/2021.3.6f1/Editor/Data/Managed/UnityEngine/UnityEngine.VehiclesModule.dll"
-r:"C:/Program Files/Unity/Hub/Editor/2021.3.6f1/Editor/Data/Managed/UnityEngine/UnityEngine.VFXModule.dll"
-r:"C:/Program Files/Unity/Hub/Editor/2021.3.6f1/Editor/Data/Managed/UnityEngine/UnityEngine.VideoModule.dll"
-r:"C:/Program Files/Unity/Hub/Editor/2021.3.6f1/Editor/Data/Managed/UnityEngine/UnityEngine.VirtualTexturingModule.dll"
-r:"C:/Program Files/Unity/Hub/Editor/2021.3.6f1/Editor/Data/Managed/UnityEngine/UnityEngine.VRModule.dll"
-r:"C:/Program Files/Unity/Hub/Editor/2021.3.6f1/Editor/Data/Managed/UnityEngine/UnityEngine.WindModule.dll"
-r:"C:/Program Files/Unity/Hub/Editor/2021.3.6f1/Editor/Data/Managed/UnityEngine/UnityEngine.XRModule.dll"
-r:"C:/Program Files/Unity/Hub/Editor/2021.3.6f1/Editor/Data/PlaybackEngines/WindowsStandaloneSupport/UnityEditor.WindowsStandalone.Extensions.dll"
-r:"C:/Program Files/Unity/Hub/Editor/2021.3.6f1/Editor/Data/UnityReferenceAssemblies/unity-4.8-api/Facades/Microsoft.Win32.Primitives.dll"
-r:"C:/Program Files/Unity/Hub/Editor/2021.3.6f1/Editor/Data/UnityReferenceAssemblies/unity-4.8-api/Facades/netstandard.dll"
-r:"C:/Program Files/Unity/Hub/Editor/2021.3.6f1/Editor/Data/UnityReferenceAssemblies/unity-4.8-api/Facades/System.AppContext.dll"
-r:"C:/Program Files/Unity/Hub/Editor/2021.3.6f1/Editor/Data/UnityReferenceAssemblies/unity-4.8-api/Facades/System.Buffers.dll"
-r:"C:/Program Files/Unity/Hub/Editor/2021.3.6f1/Editor/Data/UnityReferenceAssemblies/unity-4.8-api/Facades/System.Collections.Concurrent.dll"
-r:"C:/Program Files/Unity/Hub/Editor/2021.3.6f1/Editor/Data/UnityReferenceAssemblies/unity-4.8-api/Facades/System.Collections.dll"
-r:"C:/Program Files/Unity/Hub/Editor/2021.3.6f1/Editor/Data/UnityReferenceAssemblies/unity-4.8-api/Facades/System.Collections.NonGeneric.dll"
-r:"C:/Program Files/Unity/Hub/Editor/2021.3.6f1/Editor/Data/UnityReferenceAssemblies/unity-4.8-api/Facades/System.Collections.Specialized.dll"
-r:"C:/Program Files/Unity/Hub/Editor/2021.3.6f1/Editor/Data/UnityReferenceAssemblies/unity-4.8-api/Facades/System.ComponentModel.Annotations.dll"
-r:"C:/Program Files/Unity/Hub/Editor/2021.3.6f1/Editor/Data/UnityReferenceAssemblies/unity-4.8-api/Facades/System.ComponentModel.dll"
-r:"C:/Program Files/Unity/Hub/Editor/2021.3.6f1/Editor/Data/UnityReferenceAssemblies/unity-4.8-api/Facades/System.ComponentModel.EventBasedAsync.dll"
-r:"C:/Program Files/Unity/Hub/Editor/2021.3.6f1/Editor/Data/UnityReferenceAssemblies/unity-4.8-api/Facades/System.ComponentModel.Primitives.dll"
-r:"C:/Program Files/Unity/Hub/Editor/2021.3.6f1/Editor/Data/UnityReferenceAssemblies/unity-4.8-api/Facades/System.ComponentModel.TypeConverter.dll"
-r:"C:/Program Files/Unity/Hub/Editor/2021.3.6f1/Editor/Data/UnityReferenceAssemblies/unity-4.8-api/Facades/System.Console.dll"
-r:"C:/Program Files/Unity/Hub/Editor/2021.3.6f1/Editor/Data/UnityReferenceAssemblies/unity-4.8-api/Facades/System.Data.Common.dll"
-r:"C:/Program Files/Unity/Hub/Editor/2021.3.6f1/Editor/Data/UnityReferenceAssemblies/unity-4.8-api/Facades/System.Diagnostics.Contracts.dll"
-r:"C:/Program Files/Unity/Hub/Editor/2021.3.6f1/Editor/Data/UnityReferenceAssemblies/unity-4.8-api/Facades/System.Diagnostics.Debug.dll"
-r:"C:/Program Files/Unity/Hub/Editor/2021.3.6f1/Editor/Data/UnityReferenceAssemblies/unity-4.8-api/Facades/System.Diagnostics.FileVersionInfo.dll"
-r:"C:/Program Files/Unity/Hub/Editor/2021.3.6f1/Editor/Data/UnityReferenceAssemblies/unity-4.8-api/Facades/System.Diagnostics.Process.dll"
-r:"C:/Program Files/Unity/Hub/Editor/2021.3.6f1/Editor/Data/UnityReferenceAssemblies/unity-4.8-api/Facades/System.Diagnostics.StackTrace.dll"
-r:"C:/Program Files/Unity/Hub/Editor/2021.3.6f1/Editor/Data/UnityReferenceAssemblies/unity-4.8-api/Facades/System.Diagnostics.TextWriterTraceListener.dll"
-r:"C:/Program Files/Unity/Hub/Editor/2021.3.6f1/Editor/Data/UnityReferenceAssemblies/unity-4.8-api/Facades/System.Diagnostics.Tools.dll"
-r:"C:/Program Files/Unity/Hub/Editor/2021.3.6f1/Editor/Data/UnityReferenceAssemblies/unity-4.8-api/Facades/System.Diagnostics.TraceSource.dll"
-r:"C:/Program Files/Unity/Hub/Editor/2021.3.6f1/Editor/Data/UnityReferenceAssemblies/unity-4.8-api/Facades/System.Drawing.Primitives.dll"
-r:"C:/Program Files/Unity/Hub/Editor/2021.3.6f1/Editor/Data/UnityReferenceAssemblies/unity-4.8-api/Facades/System.Dynamic.Runtime.dll"
-r:"C:/Program Files/Unity/Hub/Editor/2021.3.6f1/Editor/Data/UnityReferenceAssemblies/unity-4.8-api/Facades/System.Globalization.Calendars.dll"
-r:"C:/Program Files/Unity/Hub/Editor/2021.3.6f1/Editor/Data/UnityReferenceAssemblies/unity-4.8-api/Facades/System.Globalization.dll"
-r:"C:/Program Files/Unity/Hub/Editor/2021.3.6f1/Editor/Data/UnityReferenceAssemblies/unity-4.8-api/Facades/System.Globalization.Extensions.dll"
-r:"C:/Program Files/Unity/Hub/Editor/2021.3.6f1/Editor/Data/UnityReferenceAssemblies/unity-4.8-api/Facades/System.IO.Compression.ZipFile.dll"
-r:"C:/Program Files/Unity/Hub/Editor/2021.3.6f1/Editor/Data/UnityReferenceAssemblies/unity-4.8-api/Facades/System.IO.dll"
-r:"C:/Program Files/Unity/Hub/Editor/2021.3.6f1/Editor/Data/UnityReferenceAssemblies/unity-4.8-api/Facades/System.IO.FileSystem.dll"
-r:"C:/Program Files/Unity/Hub/Editor/2021.3.6f1/Editor/Data/UnityReferenceAssemblies/unity-4.8-api/Facades/System.IO.FileSystem.DriveInfo.dll"
-r:"C:/Program Files/Unity/Hub/Editor/2021.3.6f1/Editor/Data/UnityReferenceAssemblies/unity-4.8-api/Facades/System.IO.FileSystem.Primitives.dll"
-r:"C:/Program Files/Unity/Hub/Editor/2021.3.6f1/Editor/Data/UnityReferenceAssemblies/unity-4.8-api/Facades/System.IO.FileSystem.Watcher.dll"
-r:"C:/Program Files/Unity/Hub/Editor/2021.3.6f1/Editor/Data/UnityReferenceAssemblies/unity-4.8-api/Facades/System.IO.IsolatedStorage.dll"
-r:"C:/Program Files/Unity/Hub/Editor/2021.3.6f1/Editor/Data/UnityReferenceAssemblies/unity-4.8-api/Facades/System.IO.MemoryMappedFiles.dll"
-r:"C:/Program Files/Unity/Hub/Editor/2021.3.6f1/Editor/Data/UnityReferenceAssemblies/unity-4.8-api/Facades/System.IO.Pipes.dll"
-r:"C:/Program Files/Unity/Hub/Editor/2021.3.6f1/Editor/Data/UnityReferenceAssemblies/unity-4.8-api/Facades/System.IO.UnmanagedMemoryStream.dll"
-r:"C:/Program Files/Unity/Hub/Editor/2021.3.6f1/Editor/Data/UnityReferenceAssemblies/unity-4.8-api/Facades/System.Linq.dll"
-r:"C:/Program Files/Unity/Hub/Editor/2021.3.6f1/Editor/Data/UnityReferenceAssemblies/unity-4.8-api/Facades/System.Linq.Expressions.dll"
-r:"C:/Program Files/Unity/Hub/Editor/2021.3.6f1/Editor/Data/UnityReferenceAssemblies/unity-4.8-api/Facades/System.Linq.Parallel.dll"
-r:"C:/Program Files/Unity/Hub/Editor/2021.3.6f1/Editor/Data/UnityReferenceAssemblies/unity-4.8-api/Facades/System.Linq.Queryable.dll"
-r:"C:/Program Files/Unity/Hub/Editor/2021.3.6f1/Editor/Data/UnityReferenceAssemblies/unity-4.8-api/Facades/System.Memory.dll"
-r:"C:/Program Files/Unity/Hub/Editor/2021.3.6f1/Editor/Data/UnityReferenceAssemblies/unity-4.8-api/Facades/System.Net.Http.Rtc.dll"
-r:"C:/Program Files/Unity/Hub/Editor/2021.3.6f1/Editor/Data/UnityReferenceAssemblies/unity-4.8-api/Facades/System.Net.NameResolution.dll"
-r:"C:/Program Files/Unity/Hub/Editor/2021.3.6f1/Editor/Data/UnityReferenceAssemblies/unity-4.8-api/Facades/System.Net.NetworkInformation.dll"
-r:"C:/Program Files/Unity/Hub/Editor/2021.3.6f1/Editor/Data/UnityReferenceAssemblies/unity-4.8-api/Facades/System.Net.Ping.dll"
-r:"C:/Program Files/Unity/Hub/Editor/2021.3.6f1/Editor/Data/UnityReferenceAssemblies/unity-4.8-api/Facades/System.Net.Primitives.dll"
-r:"C:/Program Files/Unity/Hub/Editor/2021.3.6f1/Editor/Data/UnityReferenceAssemblies/unity-4.8-api/Facades/System.Net.Requests.dll"
-r:"C:/Program Files/Unity/Hub/Editor/2021.3.6f1/Editor/Data/UnityReferenceAssemblies/unity-4.8-api/Facades/System.Net.Security.dll"
-r:"C:/Program Files/Unity/Hub/Editor/2021.3.6f1/Editor/Data/UnityReferenceAssemblies/unity-4.8-api/Facades/System.Net.Sockets.dll"
-r:"C:/Program Files/Unity/Hub/Editor/2021.3.6f1/Editor/Data/UnityReferenceAssemblies/unity-4.8-api/Facades/System.Net.WebHeaderCollection.dll"
-r:"C:/Program Files/Unity/Hub/Editor/2021.3.6f1/Editor/Data/UnityReferenceAssemblies/unity-4.8-api/Facades/System.Net.WebSockets.Client.dll"
-r:"C:/Program Files/Unity/Hub/Editor/2021.3.6f1/Editor/Data/UnityReferenceAssemblies/unity-4.8-api/Facades/System.Net.WebSockets.dll"
-r:"C:/Program Files/Unity/Hub/Editor/2021.3.6f1/Editor/Data/UnityReferenceAssemblies/unity-4.8-api/Facades/System.ObjectModel.dll"
-r:"C:/Program Files/Unity/Hub/Editor/2021.3.6f1/Editor/Data/UnityReferenceAssemblies/unity-4.8-api/Facades/System.Reflection.DispatchProxy.dll"
-r:"C:/Program Files/Unity/Hub/Editor/2021.3.6f1/Editor/Data/UnityReferenceAssemblies/unity-4.8-api/Facades/System.Reflection.dll"
-r:"C:/Program Files/Unity/Hub/Editor/2021.3.6f1/Editor/Data/UnityReferenceAssemblies/unity-4.8-api/Facades/System.Reflection.Emit.dll"
-r:"C:/Program Files/Unity/Hub/Editor/2021.3.6f1/Editor/Data/UnityReferenceAssemblies/unity-4.8-api/Facades/System.Reflection.Emit.ILGeneration.dll"
-r:"C:/Program Files/Unity/Hub/Editor/2021.3.6f1/Editor/Data/UnityReferenceAssemblies/unity-4.8-api/Facades/System.Reflection.Emit.Lightweight.dll"
-r:"C:/Program Files/Unity/Hub/Editor/2021.3.6f1/Editor/Data/UnityReferenceAssemblies/unity-4.8-api/Facades/System.Reflection.Extensions.dll"
-r:"C:/Program Files/Unity/Hub/Editor/2021.3.6f1/Editor/Data/UnityReferenceAssemblies/unity-4.8-api/Facades/System.Reflection.Primitives.dll"
-r:"C:/Program Files/Unity/Hub/Editor/2021.3.6f1/Editor/Data/UnityReferenceAssemblies/unity-4.8-api/Facades/System.Resources.Reader.dll"
-r:"C:/Program Files/Unity/Hub/Editor/2021.3.6f1/Editor/Data/UnityReferenceAssemblies/unity-4.8-api/Facades/System.Resources.ResourceManager.dll"
-r:"C:/Program Files/Unity/Hub/Editor/2021.3.6f1/Editor/Data/UnityReferenceAssemblies/unity-4.8-api/Facades/System.Resources.Writer.dll"
-r:"C:/Program Files/Unity/Hub/Editor/2021.3.6f1/Editor/Data/UnityReferenceAssemblies/unity-4.8-api/Facades/System.Runtime.CompilerServices.VisualC.dll"
-r:"C:/Program Files/Unity/Hub/Editor/2021.3.6f1/Editor/Data/UnityReferenceAssemblies/unity-4.8-api/Facades/System.Runtime.dll"
-r:"C:/Program Files/Unity/Hub/Editor/2021.3.6f1/Editor/Data/UnityReferenceAssemblies/unity-4.8-api/Facades/System.Runtime.Extensions.dll"
-r:"C:/Program Files/Unity/Hub/Editor/2021.3.6f1/Editor/Data/UnityReferenceAssemblies/unity-4.8-api/Facades/System.Runtime.Handles.dll"
-r:"C:/Program Files/Unity/Hub/Editor/2021.3.6f1/Editor/Data/UnityReferenceAssemblies/unity-4.8-api/Facades/System.Runtime.InteropServices.dll"
-r:"C:/Program Files/Unity/Hub/Editor/2021.3.6f1/Editor/Data/UnityReferenceAssemblies/unity-4.8-api/Facades/System.Runtime.InteropServices.RuntimeInformation.dll"
-r:"C:/Program Files/Unity/Hub/Editor/2021.3.6f1/Editor/Data/UnityReferenceAssemblies/unity-4.8-api/Facades/System.Runtime.InteropServices.WindowsRuntime.dll"
-r:"C:/Program Files/Unity/Hub/Editor/2021.3.6f1/Editor/Data/UnityReferenceAssemblies/unity-4.8-api/Facades/System.Runtime.Numerics.dll"
-r:"C:/Program Files/Unity/Hub/Editor/2021.3.6f1/Editor/Data/UnityReferenceAssemblies/unity-4.8-api/Facades/System.Runtime.Serialization.Formatters.dll"
-r:"C:/Program Files/Unity/Hub/Editor/2021.3.6f1/Editor/Data/UnityReferenceAssemblies/unity-4.8-api/Facades/System.Runtime.Serialization.Json.dll"
-r:"C:/Program Files/Unity/Hub/Editor/2021.3.6f1/Editor/Data/UnityReferenceAssemblies/unity-4.8-api/Facades/System.Runtime.Serialization.Primitives.dll"
-r:"C:/Program Files/Unity/Hub/Editor/2021.3.6f1/Editor/Data/UnityReferenceAssemblies/unity-4.8-api/Facades/System.Runtime.Serialization.Xml.dll"
-r:"C:/Program Files/Unity/Hub/Editor/2021.3.6f1/Editor/Data/UnityReferenceAssemblies/unity-4.8-api/Facades/System.Security.Claims.dll"
-r:"C:/Program Files/Unity/Hub/Editor/2021.3.6f1/Editor/Data/UnityReferenceAssemblies/unity-4.8-api/Facades/System.Security.Cryptography.Algorithms.dll"
-r:"C:/Program Files/Unity/Hub/Editor/2021.3.6f1/Editor/Data/UnityReferenceAssemblies/unity-4.8-api/Facades/System.Security.Cryptography.Csp.dll"
-r:"C:/Program Files/Unity/Hub/Editor/2021.3.6f1/Editor/Data/UnityReferenceAssemblies/unity-4.8-api/Facades/System.Security.Cryptography.Encoding.dll"
-r:"C:/Program Files/Unity/Hub/Editor/2021.3.6f1/Editor/Data/UnityReferenceAssemblies/unity-4.8-api/Facades/System.Security.Cryptography.Primitives.dll"
-r:"C:/Program Files/Unity/Hub/Editor/2021.3.6f1/Editor/Data/UnityReferenceAssemblies/unity-4.8-api/Facades/System.Security.Cryptography.X509Certificates.dll"
-r:"C:/Program Files/Unity/Hub/Editor/2021.3.6f1/Editor/Data/UnityReferenceAssemblies/unity-4.8-api/Facades/System.Security.Principal.dll"
-r:"C:/Program Files/Unity/Hub/Editor/2021.3.6f1/Editor/Data/UnityReferenceAssemblies/unity-4.8-api/Facades/System.Security.SecureString.dll"
-r:"C:/Program Files/Unity/Hub/Editor/2021.3.6f1/Editor/Data/UnityReferenceAssemblies/unity-4.8-api/Facades/System.ServiceModel.Duplex.dll"
-r:"C:/Program Files/Unity/Hub/Editor/2021.3.6f1/Editor/Data/UnityReferenceAssemblies/unity-4.8-api/Facades/System.ServiceModel.Http.dll"
-r:"C:/Program Files/Unity/Hub/Editor/2021.3.6f1/Editor/Data/UnityReferenceAssemblies/unity-4.8-api/Facades/System.ServiceModel.NetTcp.dll"
-r:"C:/Program Files/Unity/Hub/Editor/2021.3.6f1/Editor/Data/UnityReferenceAssemblies/unity-4.8-api/Facades/System.ServiceModel.Primitives.dll"
-r:"C:/Program Files/Unity/Hub/Editor/2021.3.6f1/Editor/Data/UnityReferenceAssemblies/unity-4.8-api/Facades/System.ServiceModel.Security.dll"
-r:"C:/Program Files/Unity/Hub/Editor/2021.3.6f1/Editor/Data/UnityReferenceAssemblies/unity-4.8-api/Facades/System.Text.Encoding.dll"
-r:"C:/Program Files/Unity/Hub/Editor/2021.3.6f1/Editor/Data/UnityReferenceAssemblies/unity-4.8-api/Facades/System.Text.Encoding.Extensions.dll"
-r:"C:/Program Files/Unity/Hub/Editor/2021.3.6f1/Editor/Data/UnityReferenceAssemblies/unity-4.8-api/Facades/System.Text.RegularExpressions.dll"
-r:"C:/Program Files/Unity/Hub/Editor/2021.3.6f1/Editor/Data/UnityReferenceAssemblies/unity-4.8-api/Facades/System.Threading.dll"
-r:"C:/Program Files/Unity/Hub/Editor/2021.3.6f1/Editor/Data/UnityReferenceAssemblies/unity-4.8-api/Facades/System.Threading.Overlapped.dll"
-r:"C:/Program Files/Unity/Hub/Editor/2021.3.6f1/Editor/Data/UnityReferenceAssemblies/unity-4.8-api/Facades/System.Threading.Tasks.dll"
-r:"C:/Program Files/Unity/Hub/Editor/2021.3.6f1/Editor/Data/UnityReferenceAssemblies/unity-4.8-api/Facades/System.Threading.Tasks.Extensions.dll"
-r:"C:/Program Files/Unity/Hub/Editor/2021.3.6f1/Editor/Data/UnityReferenceAssemblies/unity-4.8-api/Facades/System.Threading.Tasks.Parallel.dll"
-r:"C:/Program Files/Unity/Hub/Editor/2021.3.6f1/Editor/Data/UnityReferenceAssemblies/unity-4.8-api/Facades/System.Threading.Thread.dll"
-r:"C:/Program Files/Unity/Hub/Editor/2021.3.6f1/Editor/Data/UnityReferenceAssemblies/unity-4.8-api/Facades/System.Threading.ThreadPool.dll"
-r:"C:/Program Files/Unity/Hub/Editor/2021.3.6f1/Editor/Data/UnityReferenceAssemblies/unity-4.8-api/Facades/System.Threading.Timer.dll"
-r:"C:/Program Files/Unity/Hub/Editor/2021.3.6f1/Editor/Data/UnityReferenceAssemblies/unity-4.8-api/Facades/System.ValueTuple.dll"
-r:"C:/Program Files/Unity/Hub/Editor/2021.3.6f1/Editor/Data/UnityReferenceAssemblies/unity-4.8-api/Facades/System.Xml.ReaderWriter.dll"
-r:"C:/Program Files/Unity/Hub/Editor/2021.3.6f1/Editor/Data/UnityReferenceAssemblies/unity-4.8-api/Facades/System.Xml.XDocument.dll"
-r:"C:/Program Files/Unity/Hub/Editor/2021.3.6f1/Editor/Data/UnityReferenceAssemblies/unity-4.8-api/Facades/System.Xml.XmlDocument.dll"
-r:"C:/Program Files/Unity/Hub/Editor/2021.3.6f1/Editor/Data/UnityReferenceAssemblies/unity-4.8-api/Facades/System.Xml.XmlSerializer.dll"
-r:"C:/Program Files/Unity/Hub/Editor/2021.3.6f1/Editor/Data/UnityReferenceAssemblies/unity-4.8-api/Facades/System.Xml.XPath.dll"
-r:"C:/Program Files/Unity/Hub/Editor/2021.3.6f1/Editor/Data/UnityReferenceAssemblies/unity-4.8-api/Facades/System.Xml.XPath.XDocument.dll"
-r:"C:/Program Files/Unity/Hub/Editor/2021.3.6f1/Editor/Data/UnityReferenceAssemblies/unity-4.8-api/Microsoft.CSharp.dll"
-r:"C:/Program Files/Unity/Hub/Editor/2021.3.6f1/Editor/Data/UnityReferenceAssemblies/unity-4.8-api/mscorlib.dll"
-r:"C:/Program Files/Unity/Hub/Editor/2021.3.6f1/Editor/Data/UnityReferenceAssemblies/unity-4.8-api/System.ComponentModel.Composition.dll"
-r:"C:/Program Files/Unity/Hub/Editor/2021.3.6f1/Editor/Data/UnityReferenceAssemblies/unity-4.8-api/System.Core.dll"
-r:"C:/Program Files/Unity/Hub/Editor/2021.3.6f1/Editor/Data/UnityReferenceAssemblies/unity-4.8-api/System.Data.DataSetExtensions.dll"
-r:"C:/Program Files/Unity/Hub/Editor/2021.3.6f1/Editor/Data/UnityReferenceAssemblies/unity-4.8-api/System.Data.dll"
-r:"C:/Program Files/Unity/Hub/Editor/2021.3.6f1/Editor/Data/UnityReferenceAssemblies/unity-4.8-api/System.dll"
-r:"C:/Program Files/Unity/Hub/Editor/2021.3.6f1/Editor/Data/UnityReferenceAssemblies/unity-4.8-api/System.Drawing.dll"
-r:"C:/Program Files/Unity/Hub/Editor/2021.3.6f1/Editor/Data/UnityReferenceAssemblies/unity-4.8-api/System.IO.Compression.dll"
-r:"C:/Program Files/Unity/Hub/Editor/2021.3.6f1/Editor/Data/UnityReferenceAssemblies/unity-4.8-api/System.IO.Compression.FileSystem.dll"
-r:"C:/Program Files/Unity/Hub/Editor/2021.3.6f1/Editor/Data/UnityReferenceAssemblies/unity-4.8-api/System.Net.Http.dll"
-r:"C:/Program Files/Unity/Hub/Editor/2021.3.6f1/Editor/Data/UnityReferenceAssemblies/unity-4.8-api/System.Numerics.dll"
-r:"C:/Program Files/Unity/Hub/Editor/2021.3.6f1/Editor/Data/UnityReferenceAssemblies/unity-4.8-api/System.Numerics.Vectors.dll"
-r:"C:/Program Files/Unity/Hub/Editor/2021.3.6f1/Editor/Data/UnityReferenceAssemblies/unity-4.8-api/System.Runtime.Serialization.dll"
-r:"C:/Program Files/Unity/Hub/Editor/2021.3.6f1/Editor/Data/UnityReferenceAssemblies/unity-4.8-api/System.Transactions.dll"
-r:"C:/Program Files/Unity/Hub/Editor/2021.3.6f1/Editor/Data/UnityReferenceAssemblies/unity-4.8-api/System.Xml.dll"
-r:"C:/Program Files/Unity/Hub/Editor/2021.3.6f1/Editor/Data/UnityReferenceAssemblies/unity-4.8-api/System.Xml.Linq.dll"
-r:"U:/My Projects/MrDoggo/Library/PackageCache/com.unity.ext.nunit@1.0.6/net35/unity-custom/nunit.framework.dll"
-r:"Library/Bee/artifacts/1900b0aE.dag/UnityEditor.TestRunner.ref.dll"
-r:"Library/Bee/artifacts/1900b0aE.dag/UnityEditor.UI.ref.dll"
-r:"Library/Bee/artifacts/1900b0aE.dag/UnityEngine.TestRunner.ref.dll"
-r:"Library/Bee/artifacts/1900b0aE.dag/UnityEngine.UI.ref.dll"
-r:"Library/Bee/artifacts/1900b0aE.dag/Zenject-TestFramework.ref.dll"
-r:"Library/Bee/artifacts/1900b0aE.dag/Zenject.ref.dll"
"Assets/Plugins/Zenject/OptionalExtras/UnitTests/Editor/BindFeatures/TestBindingInheritanceMethod.cs"
"Assets/Plugins/Zenject/OptionalExtras/UnitTests/Editor/BindFeatures/TestConcreteIdentifier.cs"
"Assets/Plugins/Zenject/OptionalExtras/UnitTests/Editor/BindFeatures/TestIfNotBound.cs"
"Assets/Plugins/Zenject/OptionalExtras/UnitTests/Editor/BindFeatures/TestMoveIntoAllSubContainers.cs"
"Assets/Plugins/Zenject/OptionalExtras/UnitTests/Editor/BindFeatures/TestMoveIntoDirectSubContainers.cs"
"Assets/Plugins/Zenject/OptionalExtras/UnitTests/Editor/BindFeatures/TestMultipleContractTypes.cs"
"Assets/Plugins/Zenject/OptionalExtras/UnitTests/Editor/BindFeatures/TestMultipleContractTypes2.cs"
"Assets/Plugins/Zenject/OptionalExtras/UnitTests/Editor/BindFeatures/TestMultipleContractTypes3.cs"
"Assets/Plugins/Zenject/OptionalExtras/UnitTests/Editor/BindFeatures/TestNonLazy.cs"
"Assets/Plugins/Zenject/OptionalExtras/UnitTests/Editor/BindFeatures/TestRebind.cs"
"Assets/Plugins/Zenject/OptionalExtras/UnitTests/Editor/BindFeatures/TestUnbind.cs"
"Assets/Plugins/Zenject/OptionalExtras/UnitTests/Editor/BindFeatures/TestWithArguments.cs"
"Assets/Plugins/Zenject/OptionalExtras/UnitTests/Editor/Bindings/TestFrom.cs"
"Assets/Plugins/Zenject/OptionalExtras/UnitTests/Editor/Bindings/TestFromFactory.cs"
"Assets/Plugins/Zenject/OptionalExtras/UnitTests/Editor/Bindings/TestFromGetter.cs"
"Assets/Plugins/Zenject/OptionalExtras/UnitTests/Editor/Bindings/TestFromIFactory.cs"
"Assets/Plugins/Zenject/OptionalExtras/UnitTests/Editor/Bindings/TestFromIFactory2.cs"
"Assets/Plugins/Zenject/OptionalExtras/UnitTests/Editor/Bindings/TestFromInstance.cs"
"Assets/Plugins/Zenject/OptionalExtras/UnitTests/Editor/Bindings/TestFromMethod.cs"
"Assets/Plugins/Zenject/OptionalExtras/UnitTests/Editor/Bindings/TestFromMethodMultiple.cs"
"Assets/Plugins/Zenject/OptionalExtras/UnitTests/Editor/Bindings/TestFromMethodMultipleUntyped.cs"
"Assets/Plugins/Zenject/OptionalExtras/UnitTests/Editor/Bindings/TestFromResolve.cs"
"Assets/Plugins/Zenject/OptionalExtras/UnitTests/Editor/Bindings/TestFromSubContainerInstaller.cs"
"Assets/Plugins/Zenject/OptionalExtras/UnitTests/Editor/Bindings/TestFromSubContainerInstance.cs"
"Assets/Plugins/Zenject/OptionalExtras/UnitTests/Editor/Bindings/TestFromSubContainerInstanceGetter.cs"
"Assets/Plugins/Zenject/OptionalExtras/UnitTests/Editor/Bindings/TestFromSubContainerMethod.cs"
"Assets/Plugins/Zenject/OptionalExtras/UnitTests/Editor/Bindings/TestNonGeneric.cs"
"Assets/Plugins/Zenject/OptionalExtras/UnitTests/Editor/Bindings/TestWithKernel.cs"
"Assets/Plugins/Zenject/OptionalExtras/UnitTests/Editor/Conditions/TestConditionsBasic.cs"
"Assets/Plugins/Zenject/OptionalExtras/UnitTests/Editor/Conditions/TestConditionsComplex.cs"
"Assets/Plugins/Zenject/OptionalExtras/UnitTests/Editor/Conditions/TestConditionsFieldName.cs"
"Assets/Plugins/Zenject/OptionalExtras/UnitTests/Editor/Conditions/TestConditionsIdentifier.cs"
"Assets/Plugins/Zenject/OptionalExtras/UnitTests/Editor/Conditions/TestConditionsParents.cs"
"Assets/Plugins/Zenject/OptionalExtras/UnitTests/Editor/Conditions/TestConditionsTarget.cs"
"Assets/Plugins/Zenject/OptionalExtras/UnitTests/Editor/Conditions/TestConditionsTargetInstance.cs"
"Assets/Plugins/Zenject/OptionalExtras/UnitTests/Editor/Conditions/TestIdentifiers.cs"
"Assets/Plugins/Zenject/OptionalExtras/UnitTests/Editor/Conditions/TestIdentifierTypes.cs"
"Assets/Plugins/Zenject/OptionalExtras/UnitTests/Editor/Conventions/Foo.cs"
"Assets/Plugins/Zenject/OptionalExtras/UnitTests/Editor/Conventions/FooMore.cs"
"Assets/Plugins/Zenject/OptionalExtras/UnitTests/Editor/Conventions/TestConvention.cs"
"Assets/Plugins/Zenject/OptionalExtras/UnitTests/Editor/Conventions/TestConvention2.cs"
"Assets/Plugins/Zenject/OptionalExtras/UnitTests/Editor/Conventions/TestConventionNames.cs"
"Assets/Plugins/Zenject/OptionalExtras/UnitTests/Editor/Factories/Bindings/TestFactoryFrom0.cs"
"Assets/Plugins/Zenject/OptionalExtras/UnitTests/Editor/Factories/Bindings/TestFactoryFrom1.cs"
"Assets/Plugins/Zenject/OptionalExtras/UnitTests/Editor/Factories/Bindings/TestFactoryFrom5.cs"
"Assets/Plugins/Zenject/OptionalExtras/UnitTests/Editor/Factories/Bindings/TestFactoryFromFactory0.cs"
"Assets/Plugins/Zenject/OptionalExtras/UnitTests/Editor/Factories/Bindings/TestFactoryFromFactory1.cs"
"Assets/Plugins/Zenject/OptionalExtras/UnitTests/Editor/Factories/Bindings/TestFactoryFromGetter0.cs"
"Assets/Plugins/Zenject/OptionalExtras/UnitTests/Editor/Factories/Bindings/TestFactoryFromInstance0.cs"
"Assets/Plugins/Zenject/OptionalExtras/UnitTests/Editor/Factories/Bindings/TestFactoryFromMethod0.cs"
"Assets/Plugins/Zenject/OptionalExtras/UnitTests/Editor/Factories/Bindings/TestFactoryFromMethod1.cs"
"Assets/Plugins/Zenject/OptionalExtras/UnitTests/Editor/Factories/Bindings/TestFactoryFromResolve0.cs"
"Assets/Plugins/Zenject/OptionalExtras/UnitTests/Editor/Factories/Bindings/TestFactoryFromSubContainerInstaller0.cs"
"Assets/Plugins/Zenject/OptionalExtras/UnitTests/Editor/Factories/Bindings/TestFactoryFromSubContainerInstaller1.cs"
"Assets/Plugins/Zenject/OptionalExtras/UnitTests/Editor/Factories/Bindings/TestFactoryFromSubContainerMethod0.cs"
"Assets/Plugins/Zenject/OptionalExtras/UnitTests/Editor/Factories/Bindings/TestFactoryFromSubContainerMethod1.cs"
"Assets/Plugins/Zenject/OptionalExtras/UnitTests/Editor/Factories/Bindings/TestFactoryWithArguments.cs"
"Assets/Plugins/Zenject/OptionalExtras/UnitTests/Editor/Factories/IFactory/TestIFactory.cs"
"Assets/Plugins/Zenject/OptionalExtras/UnitTests/Editor/Factories/TestFactory.cs"
"Assets/Plugins/Zenject/OptionalExtras/UnitTests/Editor/Injection/TestAllInjectionTypes.cs"
"Assets/Plugins/Zenject/OptionalExtras/UnitTests/Editor/Injection/TestBaseClassPropertyInjection.cs"
"Assets/Plugins/Zenject/OptionalExtras/UnitTests/Editor/Injection/TestCircularDependencies.cs"
"Assets/Plugins/Zenject/OptionalExtras/UnitTests/Editor/Injection/TestConstructorInjection.cs"
"Assets/Plugins/Zenject/OptionalExtras/UnitTests/Editor/Injection/TestConstructorInjectionOptional.cs"
"Assets/Plugins/Zenject/OptionalExtras/UnitTests/Editor/Injection/TestDuplicateInjection.cs"
"Assets/Plugins/Zenject/OptionalExtras/UnitTests/Editor/Injection/TestInjectSources.cs"
"Assets/Plugins/Zenject/OptionalExtras/UnitTests/Editor/Injection/TestListInjection.cs"
"Assets/Plugins/Zenject/OptionalExtras/UnitTests/Editor/Injection/TestNullableValues.cs"
"Assets/Plugins/Zenject/OptionalExtras/UnitTests/Editor/Injection/TestParameters.cs"
"Assets/Plugins/Zenject/OptionalExtras/UnitTests/Editor/Injection/TestPostInjectCall.cs"
"Assets/Plugins/Zenject/OptionalExtras/UnitTests/Editor/Injection/TestPostInjectParameters.cs"
"Assets/Plugins/Zenject/OptionalExtras/UnitTests/Editor/Injection/TestPropertyInjection.cs"
"Assets/Plugins/Zenject/OptionalExtras/UnitTests/Editor/Injection/TestStructInjection.cs"
"Assets/Plugins/Zenject/OptionalExtras/UnitTests/Editor/Injection/TestTestOptional.cs"
"Assets/Plugins/Zenject/OptionalExtras/UnitTests/Editor/MemoryPool/TestArrayPool.cs"
"Assets/Plugins/Zenject/OptionalExtras/UnitTests/Editor/MemoryPool/TestDisposeBlock.cs"
"Assets/Plugins/Zenject/OptionalExtras/UnitTests/Editor/MemoryPool/TestFromPoolableMemoryPoolOne.cs"
"Assets/Plugins/Zenject/OptionalExtras/UnitTests/Editor/MemoryPool/TestFromPoolableMemoryPoolSix.cs"
"Assets/Plugins/Zenject/OptionalExtras/UnitTests/Editor/MemoryPool/TestFromPoolableMemoryPoolValidation.cs"
"Assets/Plugins/Zenject/OptionalExtras/UnitTests/Editor/MemoryPool/TestFromPoolableMemoryPoolZero.cs"
"Assets/Plugins/Zenject/OptionalExtras/UnitTests/Editor/MemoryPool/TestMemoryPool0.cs"
"Assets/Plugins/Zenject/OptionalExtras/UnitTests/Editor/MemoryPool/TestMemoryPoolCustomFactory.cs"
"Assets/Plugins/Zenject/OptionalExtras/UnitTests/Editor/MemoryPool/TestPoolableStaticMemoryPool.cs"
"Assets/Plugins/Zenject/OptionalExtras/UnitTests/Editor/MemoryPool/TestStaticMemoryPool.cs"
"Assets/Plugins/Zenject/OptionalExtras/UnitTests/Editor/Other/TestAllocs.cs"
"Assets/Plugins/Zenject/OptionalExtras/UnitTests/Editor/Other/TestAsSingle.cs"
"Assets/Plugins/Zenject/OptionalExtras/UnitTests/Editor/Other/TestBindCallbacks.cs"
"Assets/Plugins/Zenject/OptionalExtras/UnitTests/Editor/Other/TestCircularDependencies.cs"
"Assets/Plugins/Zenject/OptionalExtras/UnitTests/Editor/Other/TestClearCacheProvider.cs"
"Assets/Plugins/Zenject/OptionalExtras/UnitTests/Editor/Other/TestCustomInjectAttribute.cs"
"Assets/Plugins/Zenject/OptionalExtras/UnitTests/Editor/Other/TestDecorators.cs"
"Assets/Plugins/Zenject/OptionalExtras/UnitTests/Editor/Other/TestDecoratorValidation.cs"
"Assets/Plugins/Zenject/OptionalExtras/UnitTests/Editor/Other/TestFacadeSubContainer.cs"
"Assets/Plugins/Zenject/OptionalExtras/UnitTests/Editor/Other/TestFactoryMemoryPoolCustomInterface.cs"
"Assets/Plugins/Zenject/OptionalExtras/UnitTests/Editor/Other/TestGenericContract.cs"
"Assets/Plugins/Zenject/OptionalExtras/UnitTests/Editor/Other/TestKeyedFactoryExample.cs"
"Assets/Plugins/Zenject/OptionalExtras/UnitTests/Editor/Other/TestLazy.cs"
"Assets/Plugins/Zenject/OptionalExtras/UnitTests/Editor/Other/TestNestedContainer.cs"
"Assets/Plugins/Zenject/OptionalExtras/UnitTests/Editor/Other/TestPoolableManager.cs"
"Assets/Plugins/Zenject/OptionalExtras/UnitTests/Editor/Other/TestResolve.cs"
"Assets/Plugins/Zenject/OptionalExtras/UnitTests/Editor/Other/TestResolveMany.cs"
"Assets/Plugins/Zenject/OptionalExtras/UnitTests/Editor/Other/TestSubContainers.cs"
"Assets/Plugins/Zenject/OptionalExtras/UnitTests/Editor/Other/TestSubContainers4.cs"
"Assets/Plugins/Zenject/OptionalExtras/UnitTests/Editor/Other/TestTaskUpdater.cs"
"Assets/Plugins/Zenject/OptionalExtras/UnitTests/Editor/Other/TestTestUtil.cs"
"Assets/Plugins/Zenject/OptionalExtras/UnitTests/Editor/Other/TestTransientMockProvider.cs"
"Assets/Plugins/Zenject/OptionalExtras/UnitTests/Editor/Other/TestValidation.cs"
"Assets/Plugins/Zenject/OptionalExtras/UnitTests/Editor/Other/TestValidationSettings.cs"
"Assets/Plugins/Zenject/OptionalExtras/UnitTests/Editor/Other/ZenjectProfileTest.cs"
"Assets/Plugins/Zenject/OptionalExtras/UnitTests/Editor/Profiling/TestInstantiateApproaches.cs"
"Assets/Plugins/Zenject/OptionalExtras/UnitTests/Editor/Signals/TestAsyncSignals.cs"
"Assets/Plugins/Zenject/OptionalExtras/UnitTests/Editor/Signals/TestBindSignal.cs"
"Assets/Plugins/Zenject/OptionalExtras/UnitTests/Editor/Signals/TestSignalIdentifiers.cs"
"Assets/Plugins/Zenject/OptionalExtras/UnitTests/Editor/Signals/TestSignalRuntimeDeclaration.cs"
"Assets/Plugins/Zenject/OptionalExtras/UnitTests/Editor/Signals/TestSignals1.cs"
"Assets/Plugins/Zenject/OptionalExtras/UnitTests/Editor/Signals/TestSignalsAdvanced.cs"
"Assets/Plugins/Zenject/OptionalExtras/UnitTests/Editor/Util/TestListComparer.cs"
-langversion:9.0

/deterministic
/optimize+
/debug:portable
/nologo
/RuntimeMetadataVersion:v4.0.30319

/nowarn:0169
/nowarn:0649
/nowarn:1701
/nowarn:1702
/utf8output
/preferreduilang:en-US


/additionalfile:"Library/Bee/artifacts/1900b0aE.dag/Zenject-UnitTests-Editor.AdditionalFile.txt"